39670568 39668456
39668456 39631080 21507690 39671419
21507690 21557251 39938051 21575688 21469195 21626891 21514262 23324694 20928540 21450786 21491747 40134690 22386725 21563432 21467186 21528627 21518390 21573688 21512268 21456975 21567569 21522515 40728675 21588068 21514344 22714474 21483628 17993844 21475445 21788793 40136829 21561471 21448843 26247318 19652760 21510312 20908203 21543088 21545142 21514424 21469375 21516485 21512400 21477585 23924951 21473502 13832418 14559464 21518572 40454397 21514504 21504270 21534993 21600535 22667547 21555485 21510430 25444640 25696552 21569834 21508395 23261482 21512499 21651768 27707743 21514595 23013742 40130927 21520758 21623179 40112526 21481871 21559701 21469620 22340025 21459386 32502205 21510602 21531092 21514712 21527002 21506536 21512695 21615097 21871103 21547520 21502469 30618120 40235536 21525009 39911954 21522963 21514772 21551664 25150005 21520964 40497736 19540553 21533257 21477975 21678681 21619299 21514855 21535335 21553768 36117100 40485484 5579384 21486200 22221448 21504654 21516948 21514920 32817834 39901869 13396654 37278384 21510842 21627583 21295815 21512908 21541587 23651031 21529310 21514978 15784676 21508839 21564140 21545709 20921075 21519100 23005948 21463812 22735624 36330261 27902746 21490463 3431202 21521190 21515054 25533233 21949234 21140297 25340747 21498707 21513046 21517142 24290135 19616604 21625692 21457761 21566316 21609324 22608752 25338736 21468019 21515123 21558134 21599096 40078207 23192450 21629837 21494670 21568400 21611425 21461930 22551467 21539759 21488561 21613491 25811892 21523387 40133570 21836739 21453769 22938569 25166793 21515216 21570512 20581330 23835600 21480413 19311587 21591018 21482488 21443577 24339450 21525499 21531657 21513228 21509136 21507092 21476374 21455899 21521438 21470239 21572638 21474338 23077922 20286511 885820 21515326 40135749 21982280 21460047 25171027 21472352 19817587 21503104 10271874 40144011 21515406 21511313 30878865 34329768 21593257 39697588 22152375 21529789 21624000 21621960 23133384 21517518 24198352 21505238 23665889 21515491 22043881 21484792 23434493 23862533 21562630 29168906 21550348 20903188 36050197 24571161 36216092 21548320 19070242 22797602 21515577 28628285 21513537 21554501 21597510 21556551 21509461 21552470 27086170 23008612 21507439 21511540 33729934 21517713 11193748 20866459 24313248 21493153 21583265 21515694 21605806 21536184 21607864 21466557 21579197 21568973 21503446 29826532 21515756 21497325 9035253 34915830 21745143 24522231 21478906 21452284 23963141 21519881 21544458 13047311 21564950 21511711 16336420 22957604 24995369 19973675 24084025 21546558 21515841 20901442 25380422 21513804 21521996 41072215 21409387 40533626 40494715 21464700 21532285 21515902 21517952 21585537 21558930 23062170 21538462 21528223 21505698 21604006 20688555 21513899 17444527 41402035 39089846 8402617 21515961 21567166 21524176 19406549 21534427 21458655 21468904 12054263 39853815 21509882 21470974 21511934 21602048 21894915 22411013 21513999 23000848 21530397 27703079 21499691 21503788 21516075 21518126 23490355 21571381 21552952 22495048 21507913 34332490 21477195 21595983 21530460 21561181 40140642 21591907 21514096 21569392 21360507 22017918 31350661 21931911 7024527 36423569 19429267 22697897 36960172 21485493 21510070 21487547 34877371 21516226 26511301 21514192 21462997 21501918 24698851 41330667 2101230 21520373 21460986 38076411
39671419 16602144 39671459 39668804 39671619 36116877 39671213 21515823 39669746 39671901
